\relax 
\newlabel{eq:constitutive}{{1}{1}}
\newlabel{eq:wave}{{2}{1}}
\newlabel{eq:helmholtz}{{4}{1}}
\newlabel{eq:pwave}{{5a}{1}}
\newlabel{eq:swave}{{5b}{1}}
\newlabel{eq:cond}{{5c}{1}}
\newlabel{eq:slownesses}{{14}{3}}
\newlabel{eq:displacements}{{15}{3}}
\newlabel{eq:displacements12}{{16}{4}}
\newlabel{eq:snell}{{17}{4}}
\newlabel{eq:coeffs1}{{18}{4}}
\newlabel{eq:tractions}{{19}{4}}
\newlabel{eq:tractions12}{{20}{4}}
\newlabel{eq:coeffs2}{{21}{4}}
\@writefile{lof}{\contentsline {figure}{\numberline {1}{\ignorespaces The reflections and transmission of an incident P-wave.}}{6}}
\newlabel{fig:fig1}{{1}{6}}
